# Blender MTL File: 'None'
# Material Count: 1

newmtl Blue.001
Ns 29.411765
Ka 1.000000 1.000000 1.000000
Kd 0.137255 0.403922 0.870588
Ks 0.250000 0.250000 0.250000
Ke 0.000000 0.000000 0.000000
Ni 0.000000
d 1.000000
illum 2
