# Blender v2.78 (sub 0) OBJ File: 'sphere_textured.blend'
# www.blender.org
mtllib floor.mtl
o Grid_Grid.001
v 20.000000 -20.000000 0.000000
v 20.000000 -16.000000 0.000000
v 20.000000 -12.000000 0.000000
v 20.000000 -8.000000 0.000000
v 20.000000 -4.000000 0.000000
v 20.000000 0.000000 0.000000
v 20.000000 4.000001 0.000000
v 20.000000 8.000000 0.000000
v 20.000000 12.000000 0.000000
v 20.000000 16.000002 0.000000
v 20.000000 20.000000 0.000000
v 16.000000 -20.000000 0.000000
v 16.000000 -16.000000 0.000000
v 16.000000 -12.000000 0.000000
v 16.000000 -8.000000 0.000000
v 16.000000 -4.000000 0.000000
v 16.000000 0.000000 0.000000
v 16.000000 4.000001 0.000000
v 16.000000 8.000000 0.000000
v 16.000000 12.000000 0.000000
v 16.000000 16.000002 0.000000
v 16.000000 20.000000 0.000000
v 12.000000 -20.000000 0.000000
v 12.000000 -16.000000 0.000000
v 12.000000 -12.000000 0.000000
v 12.000000 -8.000000 0.000000
v 12.000000 -4.000000 0.000000
v 12.000000 0.000000 0.000000
v 12.000000 4.000001 0.000000
v 12.000000 8.000000 0.000000
v 12.000000 12.000000 0.000000
v 12.000000 16.000002 0.000000
v 12.000000 20.000000 0.000000
v 8.000000 -20.000000 0.000000
v 8.000000 -16.000000 0.000000
v 8.000000 -12.000000 0.000000
v 8.000000 -8.000000 0.000000
v 8.000000 -4.000000 0.000000
v 8.000000 0.000000 0.000000
v 8.000000 4.000001 0.000000
v 8.000000 8.000000 0.000000
v 8.000000 12.000000 0.000000
v 8.000000 16.000002 0.000000
v 8.000000 20.000000 0.000000
v 4.000000 -20.000000 0.000000
v 4.000000 -16.000000 0.000000
v 4.000000 -12.000000 0.000000
v 4.000000 -8.000000 0.000000
v 4.000000 -4.000000 0.000000
v 4.000000 0.000000 0.000000
v 4.000000 4.000001 0.000000
v 4.000000 8.000000 0.000000
v 4.000000 12.000000 0.000000
v 4.000000 16.000002 0.000000
v 4.000000 20.000000 0.000000
v 0.000000 -20.000000 0.000000
v 0.000000 -16.000000 0.000000
v 0.000000 -12.000000 0.000000
v 0.000000 -8.000000 0.000000
v 0.000000 -4.000000 0.000000
v 0.000000 0.000000 0.000000
v 0.000000 4.000001 0.000000
v 0.000000 8.000000 0.000000
v 0.000000 12.000000 0.000000
v 0.000000 16.000002 0.000000
v 0.000000 20.000000 0.000000
v -4.000001 -20.000000 0.000000
v -4.000001 -16.000000 0.000000
v -4.000001 -12.000000 0.000000
v -4.000001 -8.000000 0.000000
v -4.000001 -4.000000 0.000000
v -4.000001 0.000000 0.000000
v -4.000001 4.000001 0.000000
v -4.000001 8.000000 0.000000
v -4.000001 12.000000 0.000000
v -4.000001 16.000002 0.000000
v -4.000001 20.000000 0.000000
v -8.000000 -20.000000 0.000000
v -8.000000 -16.000000 0.000000
v -8.000000 -12.000000 0.000000
v -8.000000 -8.000000 0.000000
v -8.000000 -4.000000 0.000000
v -8.000000 0.000000 0.000000
v -8.000000 4.000001 0.000000
v -8.000000 8.000000 0.000000
v -8.000000 12.000000 0.000000
v -8.000000 16.000002 0.000000
v -8.000000 20.000000 0.000000
v -12.000000 -20.000000 0.000000
v -12.000000 -16.000000 0.000000
v -12.000000 -12.000000 0.000000
v -12.000000 -8.000000 0.000000
v -12.000000 -4.000000 0.000000
v -12.000000 0.000000 0.000000
v -12.000000 4.000001 0.000000
v -12.000000 8.000000 0.000000
v -12.000000 12.000000 0.000000
v -12.000000 16.000002 0.000000
v -12.000000 20.000000 0.000000
v -16.000002 -20.000000 0.000000
v -16.000002 -16.000000 0.000000
v -16.000002 -12.000000 0.000000
v -16.000002 -8.000000 0.000000
v -16.000002 -4.000000 0.000000
v -16.000002 0.000000 0.000000
v -16.000002 4.000001 0.000000
v -16.000002 8.000000 0.000000
v -16.000002 12.000000 0.000000
v -16.000002 16.000002 0.000000
v -16.000002 20.000000 0.000000
v -20.000000 -20.000000 0.000000
v -20.000000 -16.000000 0.000000
v -20.000000 -12.000000 0.000000
v -20.000000 -8.000000 0.000000
v -20.000000 -4.000000 0.000000
v -20.000000 0.000000 0.000000
v -20.000000 4.000001 0.000000
v -20.000000 8.000000 0.000000
v -20.000000 12.000000 0.000000
v -20.000000 16.000002 0.000000
v -20.000000 20.000000 0.000000
vt -3.4961 -4.4987
vt -4.4959 -3.4995
vt -4.4955 -4.4990
vt -2.4966 -4.4983
vt -3.4964 -3.4992
vt -1.4972 -4.4980
vt -2.4970 -3.4989
vt -0.4977 -4.4976
vt -1.4975 -3.4985
vt 0.5017 -4.4973
vt -0.4981 -3.4982
vt 1.5012 -4.4969
vt 0.5014 -3.4978
vt 2.5006 -4.4966
vt 1.5008 -3.4975
vt 3.5001 -4.4962
vt 2.5003 -3.4971
vt 4.4995 -4.4959
vt 3.4997 -3.4968
vt 5.4990 -4.4955
vt 4.4992 -3.4964
vt -4.4962 -2.5001
vt -3.4968 -2.4997
vt -2.4973 -2.4994
vt -1.4979 -2.4991
vt -0.4984 -2.4987
vt 0.5010 -2.4984
vt 1.5005 -2.4980
vt 2.4999 -2.4977
vt 3.4994 -2.4973
vt 5.4987 -3.4961
vt 4.4989 -2.4970
vt -4.4966 -1.5006
vt -3.4971 -1.5003
vt -2.4977 -1.4999
vt -1.4982 -1.4996
vt -0.4988 -1.4993
vt 0.5007 -1.4989
vt 1.5001 -1.4986
vt 2.4996 -1.4982
vt 3.4991 -1.4979
vt 5.4983 -2.4966
vt 4.4985 -1.4975
vt -4.4969 -0.5012
vt -3.4975 -0.5008
vt -2.4980 -0.5005
vt -1.4986 -0.5001
vt -0.4991 -0.4998
vt 0.5003 -0.4995
vt 1.4998 -0.4991
vt 2.4993 -0.4988
vt 3.4987 -0.4984
vt 5.4980 -1.4972
vt 4.4982 -0.4981
vt -4.4973 0.4983
vt -3.4978 0.4986
vt -2.4984 0.4990
vt -1.4989 0.4993
vt -0.4995 0.4997
vt 0.5000 0.5000
vt 1.4995 0.5003
vt 2.4989 0.5007
vt 3.4984 0.5010
vt 5.4976 -0.4977
vt 4.4978 0.5014
vt -4.4976 1.4977
vt -3.4982 1.4981
vt -2.4987 1.4984
vt -1.4993 1.4988
vt -0.4998 1.4991
vt 0.4997 1.4995
vt 1.4991 1.4998
vt 2.4986 1.5001
vt 3.4980 1.5005
vt 5.4973 0.5017
vt 4.4975 1.5008
vt -4.4980 2.4972
vt -3.4985 2.4975
vt -2.4991 2.4979
vt -1.4996 2.4982
vt -0.5001 2.4986
vt 0.4993 2.4989
vt 1.4988 2.4993
vt 2.4982 2.4996
vt 3.4977 2.4999
vt 5.4969 1.5012
vt 4.4971 2.5003
vt -4.4983 3.4966
vt -3.4989 3.4970
vt -2.4994 3.4973
vt -1.4999 3.4977
vt -0.5005 3.4980
vt 0.4990 3.4984
vt 1.4984 3.4987
vt 2.4979 3.4991
vt 3.4973 3.4994
vt 5.4966 2.5006
vt 4.4968 3.4997
vt -4.4987 4.4961
vt -3.4992 4.4964
vt -2.4997 4.4968
vt -1.5003 4.4971
vt -0.5008 4.4975
vt 0.4986 4.4978
vt 1.4981 4.4982
vt 2.4975 4.4985
vt 3.4970 4.4989
vt 5.4962 3.5001
vt 4.4964 4.4992
vt -4.4990 5.4956
vt -3.4995 5.4959
vt -2.5001 5.4962
vt -1.5006 5.4966
vt -0.5012 5.4969
vt 0.4983 5.4973
vt 1.4977 5.4976
vt 2.4972 5.4980
vt 3.4966 5.4983
vt 5.4959 4.4995
vt 4.4961 5.4987
vt 5.4956 5.4990
vn 0.0000 0.0000 1.0000
usemtl mat
s off
f 2/1/1 12/2/1 1/3/1
f 3/4/1 13/5/1 2/1/1
f 4/6/1 14/7/1 3/4/1
f 5/8/1 15/9/1 4/6/1
f 6/10/1 16/11/1 5/8/1
f 7/12/1 17/13/1 6/10/1
f 8/14/1 18/15/1 7/12/1
f 9/16/1 19/17/1 8/14/1
f 10/18/1 20/19/1 9/16/1
f 11/20/1 21/21/1 10/18/1
f 13/5/1 23/22/1 12/2/1
f 14/7/1 24/23/1 13/5/1
f 15/9/1 25/24/1 14/7/1
f 16/11/1 26/25/1 15/9/1
f 17/13/1 27/26/1 16/11/1
f 18/15/1 28/27/1 17/13/1
f 19/17/1 29/28/1 18/15/1
f 20/19/1 30/29/1 19/17/1
f 21/21/1 31/30/1 20/19/1
f 22/31/1 32/32/1 21/21/1
f 24/23/1 34/33/1 23/22/1
f 25/24/1 35/34/1 24/23/1
f 26/25/1 36/35/1 25/24/1
f 27/26/1 37/36/1 26/25/1
f 28/27/1 38/37/1 27/26/1
f 29/28/1 39/38/1 28/27/1
f 30/29/1 40/39/1 29/28/1
f 31/30/1 41/40/1 30/29/1
f 32/32/1 42/41/1 31/30/1
f 33/42/1 43/43/1 32/32/1
f 35/34/1 45/44/1 34/33/1
f 36/35/1 46/45/1 35/34/1
f 37/36/1 47/46/1 36/35/1
f 38/37/1 48/47/1 37/36/1
f 39/38/1 49/48/1 38/37/1
f 40/39/1 50/49/1 39/38/1
f 41/40/1 51/50/1 40/39/1
f 42/41/1 52/51/1 41/40/1
f 43/43/1 53/52/1 42/41/1
f 44/53/1 54/54/1 43/43/1
f 46/45/1 56/55/1 45/44/1
f 47/46/1 57/56/1 46/45/1
f 48/47/1 58/57/1 47/46/1
f 49/48/1 59/58/1 48/47/1
f 50/49/1 60/59/1 49/48/1
f 51/50/1 61/60/1 50/49/1
f 52/51/1 62/61/1 51/50/1
f 53/52/1 63/62/1 52/51/1
f 54/54/1 64/63/1 53/52/1
f 55/64/1 65/65/1 54/54/1
f 57/56/1 67/66/1 56/55/1
f 58/57/1 68/67/1 57/56/1
f 59/58/1 69/68/1 58/57/1
f 60/59/1 70/69/1 59/58/1
f 61/60/1 71/70/1 60/59/1
f 62/61/1 72/71/1 61/60/1
f 63/62/1 73/72/1 62/61/1
f 64/63/1 74/73/1 63/62/1
f 65/65/1 75/74/1 64/63/1
f 66/75/1 76/76/1 65/65/1
f 68/67/1 78/77/1 67/66/1
f 69/68/1 79/78/1 68/67/1
f 70/69/1 80/79/1 69/68/1
f 71/70/1 81/80/1 70/69/1
f 72/71/1 82/81/1 71/70/1
f 73/72/1 83/82/1 72/71/1
f 74/73/1 84/83/1 73/72/1
f 75/74/1 85/84/1 74/73/1
f 76/76/1 86/85/1 75/74/1
f 77/86/1 87/87/1 76/76/1
f 79/78/1 89/88/1 78/77/1
f 80/79/1 90/89/1 79/78/1
f 81/80/1 91/90/1 80/79/1
f 82/81/1 92/91/1 81/80/1
f 83/82/1 93/92/1 82/81/1
f 84/83/1 94/93/1 83/82/1
f 85/84/1 95/94/1 84/83/1
f 86/85/1 96/95/1 85/84/1
f 87/87/1 97/96/1 86/85/1
f 88/97/1 98/98/1 87/87/1
f 90/89/1 100/99/1 89/88/1
f 91/90/1 101/100/1 90/89/1
f 92/91/1 102/101/1 91/90/1
f 93/92/1 103/102/1 92/91/1
f 94/93/1 104/103/1 93/92/1
f 95/94/1 105/104/1 94/93/1
f 96/95/1 106/105/1 95/94/1
f 97/96/1 107/106/1 96/95/1
f 98/98/1 108/107/1 97/96/1
f 99/108/1 109/109/1 98/98/1
f 101/100/1 111/110/1 100/99/1
f 102/101/1 112/111/1 101/100/1
f 103/102/1 113/112/1 102/101/1
f 104/103/1 114/113/1 103/102/1
f 105/104/1 115/114/1 104/103/1
f 106/105/1 116/115/1 105/104/1
f 107/106/1 117/116/1 106/105/1
f 108/107/1 118/117/1 107/106/1
f 109/109/1 119/118/1 108/107/1
f 110/119/1 120/120/1 109/109/1
f 2/1/1 13/5/1 12/2/1
f 3/4/1 14/7/1 13/5/1
f 4/6/1 15/9/1 14/7/1
f 5/8/1 16/11/1 15/9/1
f 6/10/1 17/13/1 16/11/1
f 7/12/1 18/15/1 17/13/1
f 8/14/1 19/17/1 18/15/1
f 9/16/1 20/19/1 19/17/1
f 10/18/1 21/21/1 20/19/1
f 11/20/1 22/31/1 21/21/1
f 13/5/1 24/23/1 23/22/1
f 14/7/1 25/24/1 24/23/1
f 15/9/1 26/25/1 25/24/1
f 16/11/1 27/26/1 26/25/1
f 17/13/1 28/27/1 27/26/1
f 18/15/1 29/28/1 28/27/1
f 19/17/1 30/29/1 29/28/1
f 20/19/1 31/30/1 30/29/1
f 21/21/1 32/32/1 31/30/1
f 22/31/1 33/42/1 32/32/1
f 24/23/1 35/34/1 34/33/1
f 25/24/1 36/35/1 35/34/1
f 26/25/1 37/36/1 36/35/1
f 27/26/1 38/37/1 37/36/1
f 28/27/1 39/38/1 38/37/1
f 29/28/1 40/39/1 39/38/1
f 30/29/1 41/40/1 40/39/1
f 31/30/1 42/41/1 41/40/1
f 32/32/1 43/43/1 42/41/1
f 33/42/1 44/53/1 43/43/1
f 35/34/1 46/45/1 45/44/1
f 36/35/1 47/46/1 46/45/1
f 37/36/1 48/47/1 47/46/1
f 38/37/1 49/48/1 48/47/1
f 39/38/1 50/49/1 49/48/1
f 40/39/1 51/50/1 50/49/1
f 41/40/1 52/51/1 51/50/1
f 42/41/1 53/52/1 52/51/1
f 43/43/1 54/54/1 53/52/1
f 44/53/1 55/64/1 54/54/1
f 46/45/1 57/56/1 56/55/1
f 47/46/1 58/57/1 57/56/1
f 48/47/1 59/58/1 58/57/1
f 49/48/1 60/59/1 59/58/1
f 50/49/1 61/60/1 60/59/1
f 51/50/1 62/61/1 61/60/1
f 52/51/1 63/62/1 62/61/1
f 53/52/1 64/63/1 63/62/1
f 54/54/1 65/65/1 64/63/1
f 55/64/1 66/75/1 65/65/1
f 57/56/1 68/67/1 67/66/1
f 58/57/1 69/68/1 68/67/1
f 59/58/1 70/69/1 69/68/1
f 60/59/1 71/70/1 70/69/1
f 61/60/1 72/71/1 71/70/1
f 62/61/1 73/72/1 72/71/1
f 63/62/1 74/73/1 73/72/1
f 64/63/1 75/74/1 74/73/1
f 65/65/1 76/76/1 75/74/1
f 66/75/1 77/86/1 76/76/1
f 68/67/1 79/78/1 78/77/1
f 69/68/1 80/79/1 79/78/1
f 70/69/1 81/80/1 80/79/1
f 71/70/1 82/81/1 81/80/1
f 72/71/1 83/82/1 82/81/1
f 73/72/1 84/83/1 83/82/1
f 74/73/1 85/84/1 84/83/1
f 75/74/1 86/85/1 85/84/1
f 76/76/1 87/87/1 86/85/1
f 77/86/1 88/97/1 87/87/1
f 79/78/1 90/89/1 89/88/1
f 80/79/1 91/90/1 90/89/1
f 81/80/1 92/91/1 91/90/1
f 82/81/1 93/92/1 92/91/1
f 83/82/1 94/93/1 93/92/1
f 84/83/1 95/94/1 94/93/1
f 85/84/1 96/95/1 95/94/1
f 86/85/1 97/96/1 96/95/1
f 87/87/1 98/98/1 97/96/1
f 88/97/1 99/108/1 98/98/1
f 90/89/1 101/100/1 100/99/1
f 91/90/1 102/101/1 101/100/1
f 92/91/1 103/102/1 102/101/1
f 93/92/1 104/103/1 103/102/1
f 94/93/1 105/104/1 104/103/1
f 95/94/1 106/105/1 105/104/1
f 96/95/1 107/106/1 106/105/1
f 97/96/1 108/107/1 107/106/1
f 98/98/1 109/109/1 108/107/1
f 99/108/1 110/119/1 109/109/1
f 101/100/1 112/111/1 111/110/1
f 102/101/1 113/112/1 112/111/1
f 103/102/1 114/113/1 113/112/1
f 104/103/1 115/114/1 114/113/1
f 105/104/1 116/115/1 115/114/1
f 106/105/1 117/116/1 116/115/1
f 107/106/1 118/117/1 117/116/1
f 108/107/1 119/118/1 118/117/1
f 109/109/1 120/120/1 119/118/1
f 110/119/1 121/121/1 120/120/1
